{
    "name": "logger",
    "author": "Roukanken",
    "description": "Logs packets and their raw data",
    "version": "1.0",
    "servers": ["https://gitlab.com/Roukanken/toolbox-logger/raw/master/"],
    "options": {
        "niceName": "Logger",
        "settingsVersion": 1.2,
        "settingsFile": "config.json",
        "settingsMigrator": "settings/migrator.js"
    },
    "disableAutoUpdate": false
}